# ----------------------------------------------------------------------------- #

                    # Custom Dimension Portals Data Pack #
                        # Made by WafflesAreBetter #
                # https://www.youtube.com/c/WafflesAreBetter #

           # This function creates a nether portal shaped portal! #

# ----------------------------------------------------------------------------- #

# Fill the frame with the portal block

fill ~ ~ ~ ~ ~2 ~1 minecraft:moving_piston

# Summon armor stands for portal blocks
summon armor_stand ~.506 ~ ~0.5 {Rotation:[90F,0F],NoGravity:1b,Silent:1b,Invulnerable:1b,ShowArms:1b,Marker:1b,Invisible:1b,Tags:["wabportals_mars_portal_stand","wabportals_portal_stand"],ArmorItems:[{},{},{},{}]}
summon armor_stand ~.506 ~ ~1.5 {Rotation:[90F,0F],NoGravity:1b,Silent:1b,Invulnerable:1b,ShowArms:1b,Marker:1b,Invisible:1b,Tags:["wabportals_mars_portal_stand","wabportals_portal_stand"],ArmorItems:[{},{},{},{}]}
summon armor_stand ~.506 ~1 ~.5 {Rotation:[90F,0F],NoGravity:1b,Silent:1b,Invulnerable:1b,ShowArms:1b,Marker:1b,Invisible:1b,Tags:["wabportals_mars_portal_stand","wabportals_portal_stand"],ArmorItems:[{},{},{},{}]}
summon armor_stand ~.506 ~1 ~1.5 {Rotation:[90F,0F],NoGravity:1b,Silent:1b,Invulnerable:1b,ShowArms:1b,Marker:1b,Invisible:1b,Tags:["wabportals_mars_portal_stand","wabportals_portal_stand"],ArmorItems:[{},{},{},{}]}
summon armor_stand ~.506 ~2 ~.5 {Rotation:[90F,0F],NoGravity:1b,Silent:1b,Invulnerable:1b,ShowArms:1b,Marker:1b,Invisible:1b,Tags:["wabportals_mars_portal_stand","wabportals_portal_stand"],ArmorItems:[{},{},{},{}]}
summon armor_stand ~.506 ~2 ~1.5 {Rotation:[90F,0F],NoGravity:1b,Silent:1b,Invulnerable:1b,ShowArms:1b,Marker:1b,Invisible:1b,Tags:["wabportals_mars_portal_stand","wabportals_portal_stand"],ArmorItems:[{},{},{},{}]}

summon marker ~.506 ~ ~.5 {NoGravity:1b,Silent:1b,Invulnerable:1b,Tags:["wabportals_mars_marker","wabportals_mars_marker_z"]}

# Play a portal opening sound (OPTIONAL)

playsound minecraft:block.end_portal.spawn master @a ~ ~ ~ 15 1