# ----------------------------------------------------------------------------- #

                    # Custom Dimension Portals Data Pack #
                        # Made by WafflesAreBetter #
                # https://www.youtube.com/c/WafflesAreBetter #

                      # This function builds a portal! #

# ----------------------------------------------------------------------------- #

# Make the portal frame itself
fill ~2 ~-1 ~ ~-1 ~3 ~ glowstone
fill ~ ~ ~ ~1 ~2 ~ minecraft:moving_piston

# Summon armor stands for portal blocks
summon armor_stand ~.5 ~ ~.506 {NoGravity:1b,Silent:1b,Invulnerable:1b,ShowArms:1b,Marker:1b,Invisible:1b,Tags:["wabportals_mars_portal_stand","wabportals_portal_stand"],ArmorItems:[{},{},{},{}]}
summon armor_stand ~1.5 ~ ~.506 {NoGravity:1b,Silent:1b,Invulnerable:1b,ShowArms:1b,Marker:1b,Invisible:1b,Tags:["wabportals_mars_portal_stand","wabportals_portal_stand"],ArmorItems:[{},{},{},{}]}
summon armor_stand ~.5 ~1 ~.506 {NoGravity:1b,Silent:1b,Invulnerable:1b,ShowArms:1b,Marker:1b,Invisible:1b,Tags:["wabportals_mars_portal_stand","wabportals_portal_stand"],ArmorItems:[{},{},{},{}]}
summon armor_stand ~1.5 ~1 ~.506 {NoGravity:1b,Silent:1b,Invulnerable:1b,ShowArms:1b,Marker:1b,Invisible:1b,Tags:["wabportals_mars_portal_stand","wabportals_portal_stand"],ArmorItems:[{},{},{},{}]}
summon armor_stand ~.5 ~2 ~.506 {NoGravity:1b,Silent:1b,Invulnerable:1b,ShowArms:1b,Marker:1b,Invisible:1b,Tags:["wabportals_mars_portal_stand","wabportals_portal_stand"],ArmorItems:[{},{},{},{}]}
summon armor_stand ~1.5 ~2 ~.506 {NoGravity:1b,Silent:1b,Invulnerable:1b,ShowArms:1b,Marker:1b,Invisible:1b,Tags:["wabportals_mars_portal_stand","wabportals_portal_stand"],ArmorItems:[{},{},{},{}]}

# Summon the marker to make the portal work
summon marker ~.5 ~ ~.506 {NoGravity:1b,Silent:1b,Invulnerable:1b,Tags:["wabportals_mars_marker","wabportals_mars_marker_x"]}

# Play a portal opening sound (OPTIONAL)
playsound minecraft:block.end_portal.spawn master @a ~ ~ ~ 15 1

# Get rid of everything unnecessary
forceload remove ~-10 ~-10 ~10 ~10